<?xml version="1.0" encoding="UTF-8"?>
<svg width="16px" height="13px" viewBox="0 0 16 13" version="1.1" xmlns="http://www.w3.org/2000/svg" xmlns:xlink="http://www.w3.org/1999/xlink">
    <!-- Generator: Sketch 48.2 (47327) - http://www.bohemiancoding.com/sketch -->
    <title>icon-social-white-twitter</title>
    <desc>Created with Sketch.</desc>
    <defs></defs>
    <g id="Footer" stroke="none" stroke-width="1" fill="none" fill-rule="evenodd" transform="translate(-1108.000000, -182.000000)">
        <path d="M1123.26532,183.443851 C1122.70403,183.688973 1122.10087,183.853689 1121.46712,183.928122 C1122.11421,183.54723 1122.60971,182.944189 1122.84458,182.224446 C1122.23958,182.57777 1121.56833,182.834149 1120.85475,182.972216 C1120.28449,182.37377 1119.47039,182 1118.56979,182 C1116.84036,182 1115.43851,183.378838 1115.43851,185.078608 C1115.43851,185.320284 1115.46634,185.554149 1115.51856,185.780203 C1112.91637,185.651784 1110.60817,184.425716 1109.06416,182.563297 C1108.79501,183.017932 1108.63951,183.547 1108.63951,184.110986 C1108.63951,185.17877 1109.19367,186.121122 1110.03285,186.673392 C1109.52032,186.657311 1109.03655,186.518784 1108.6142,186.288365 L1108.6142,186.32673 C1108.6142,186.720946 1108.69126,187.096554 1108.8286,187.442757 C1109.21115,188.408311 1110.07218,189.137473 1111.12691,189.346757 C1110.86351,189.416135 1110.5877,189.45473 1110.30107,189.45473 C1110.09979,189.45473 1109.90379,189.435203 1109.71194,189.398676 C1110.11129,190.621527 1111.26769,191.512189 1112.63757,191.53677 C1111.56536,192.363108 1110.21573,192.855189 1108.74785,192.855189 C1108.49458,192.855189 1108.24591,192.840486 1108,192.812 C1109.38713,193.685432 1111.03397,194.195203 1112.80112,194.195203 C1117.69702,194.195203 1120.70546,190.808068 1121.49909,187.294122 C1121.63964,186.673162 1121.71211,186.047608 1121.71211,185.435608 C1121.71211,185.302824 1121.70958,185.169351 1121.70383,185.037486 C1122.31504,184.603527 1122.84642,184.061365 1123.26532,183.443851" id="icon-social-white-twitter" fill="#FFFFFF"></path>
    </g>
</svg>